<svg 
 xmlns="http://www.w3.org/2000/svg"
 xmlns:xlink="http://www.w3.org/1999/xlink"
 viewBox="0 0 216 50">
<path fill-rule="evenodd"  fill="rgb(255, 195, 38)"
 d="M25.467,2.961 C40.091,2.947 54.867,2.786 69.602,2.381 C76.968,2.183 84.322,1.936 91.633,1.668 C95.289,1.534 98.934,1.395 102.564,1.257 C106.194,1.118 109.809,0.981 113.405,0.849 C142.189,-0.216 169.715,-0.821 193.989,2.442 C211.001,5.154 214.303,16.640 215.921,26.579 C215.969,26.916 215.998,27.253 216.007,27.590 C216.017,27.927 216.007,28.265 215.979,28.602 C215.922,29.276 215.791,29.950 215.591,30.620 C215.190,31.960 214.509,33.288 213.591,34.580 C211.759,37.164 208.968,39.611 205.670,41.693 C199.046,45.881 190.586,48.456 183.574,48.204 C163.554,48.700 142.851,47.366 120.606,46.789 C119.211,46.755 117.809,46.725 116.399,46.698 C114.989,46.671 113.571,46.649 112.143,46.631 C109.289,46.596 106.398,46.580 103.465,46.587 C97.599,46.600 91.563,46.710 85.291,46.934 C72.746,47.367 59.243,48.323 44.169,49.516 C33.601,50.935 21.598,49.189 12.878,44.790 C8.538,42.625 5.098,39.860 3.081,36.876 C2.576,36.130 2.157,35.373 1.831,34.609 C1.667,34.228 1.527,33.845 1.411,33.462 C1.294,33.078 1.201,32.695 1.132,32.312 C0.856,30.780 0.965,29.258 1.482,27.807 C5.104,17.406 4.325,3.036 25.467,2.961 L25.467,2.961 Z"/>
</svg>
