<svg version="1.1" id="Слой_1" xmlns="http://www.w3.org/2000/svg" xmlns:xlink="http://www.w3.org/1999/xlink" x="0px" y="0px"
	 viewBox="0 0 317.2 528.8" style="enable-background:new 0 0 317.2 528.8;" xml:space="preserve">
<style type="text/css">
	.st0{fill:#FFF9EB;}
	.st1{fill:#FAF1DE;}
	.st2{fill:#FEF4E1;}
</style>
<path class="st0" d="M16.5,460.1c-5.7,3.1,102.9,64.5,116.6,65.3s109.8-36.9,160.7-27.1s-84-35.5-116-36s-120,5-124.3-4.3
	S65.1,433.5,16.5,460.1z"/>
<path id="Shape_33_copy_2" d="M44,454.9c1,0.3,1,0.3,1.2,1.5c-2.8,3-5.8,11.6-5.9,17.2c-0.5,0.3-1,0.5-1.6,0.6
	c-0.3-1.3-0.4-2.7-0.3-4c0.6-1,0.5-2.5,0.9-3.7C39.9,462.5,41.3,457.8,44,454.9z"/>
<path class="st1" d="M35.9,422.5l94.4,87.4c0,0,87.1-50.9,152.1-48c-30.1-19.8-141.3-64-141.3-64L35.9,422.5z"/>
<path id="Shape_33_copy_3" d="M177.8,453.6c1.2,0.3,1.4,0.4,1.5,1.8h-0.6c-4,2.7-10.6,1.9-15.7,3.4c-6.4,1.8-13,3.5-19.4,5.9
	c-3.5,1.3-6.4,3.2-10.8,3.4c-0.2-0.5-0.3-1-0.3-1.5c0.1-0.1,0.2-0.2,0.3-0.3c3.6-0.4,6.8-2.2,9.9-3.4c6.4-2.4,13-3.9,19.4-5.8
	C166.5,455.7,174.5,455.8,177.8,453.6z M184.9,461h1.2c0.2,0.5,0.3,1,0.3,1.5c-5.1,2.6-11.5,2.5-17.6,4.3
	c-5.1,1.6-10.4,3.2-15.4,5.2c-3.4,1.4-11.2,5.1-14.8,4.6v-1.2c3.5-1.8,7.5-2.4,11.4-4c5.7-2.3,11.8-4.6,17.9-6.5
	C172.3,463.7,182.1,463.3,184.9,461L184.9,461z"/>
<path id="лист" class="st0" d="M23,398.2l109.8,45.9c0,0,3.2-8,11.7-8.6s77-23.6,101.8-16.6c14.6,4.2,29.6,6.7,44.7,7.4
	l-149-47.4c0,0-80.1,2.2-115.3,16"/>
<path id="лист-2" class="st2" d="M71.4,372.3c0,0,86.3,33.9,99.6,48.7c43.5-8.7,106.1-16.3,106.1-16.3s-33.2-32.7-40.4-35.7
	s-78-20-78-20L71.4,372.3z"/>
<path id="лист-3" class="st0" d="M11.3,302.7c-5.3,0.3,107,72.7,107,72.7l131.1-38.2L100.7,299C100.7,299,34.7,301.3,11.3,302.7
	z"/>
<path id="лист-4" class="st1" d="M41.8,285.8c8.3,4.7,116,46.2,116,46.2s35.6-35.4,91-29.9s65.4,3.1,65.4,3.1
	s-56.9-33-112.6-48.3c-41.4-11.4-85.7-6.5-85.7-6.5s-57.2,33.9-79,33.9"/>
<path id="лист-5" class="st0" d="M27.3,249.8c0,0-7.2-9,21,0.9s128,45.6,128,45.6s99.4-40.6,107-41s-144.7-34.2-144.7-34.2
	L47.1,235C47.1,235,27.7,238.3,27.3,249.8z"/>
<path class="st1" d="M6.6,214.1c0,0,8.6,13.9,32.4,8.6s79.3-7.1,79.3-7.1s79.7,32.8,86.7,30.2s70-52.3,70-52.3l21,7.4
	c0,0,7.7-13.5-4.9-16.6S148.2,163,148.2,163s-32.5,5.2-57.7,17.2C56.9,196.3,26.3,219.8,6.6,214.1z"/>
<path id="Shape_33_copy" d="M223.8,181.1h1.2c0.2,0.5,0.3,1,0.3,1.5c-5.6,3.6-11,7.7-16.3,11.7c-2.1,1.6-4,4-6.2,5.5
	c-4.2,3.1-11.5,7.7-14.5,11.7c-2.9,3.9-6.8,7.3-10.2,10.8c-1.3,1.3-1.7,3.4-4,3.7v-0.6c-0.2-0.3-0.3-0.6-0.3-0.9
	c3.1-3,6-6.3,8.6-9.9c2.6-3.4,6.7-6.6,10.2-9.2c3.6-2.7,6.8-6.3,10.5-8.9c4.1-3,7.7-6.4,11.7-9.2
	C217.6,185.3,221.8,183.9,223.8,181.1z M250.6,184.2h1.2c0.2,0.5,0.3,1,0.3,1.5c-7.4,4.5-14.5,9.5-21.3,14.8
	c-2.9,2.2-5.4,5.5-8.3,7.7c-1,0.8-2.1,1.1-3.1,1.8l-3.4,3.7c-1.2,0.9-2.5,1.3-3.4,2.5c-3.7,4.8-8.1,9-12.3,13.2
	c-1.5,1.5-2.3,4.1-4.6,4.6c-0.3-0.5-0.5-1-0.6-1.5c2.3-1.6,4.5-4.8,6.2-7.1c2.4-2.3,4.7-4.5,7.1-6.8c1.9-2.6,4.2-4.9,6.8-6.8
	c1.1-1.2,2.3-2.5,3.4-3.7c6.7-4.9,12.4-10.9,19.1-15.7C241.7,189.6,247.3,187.8,250.6,184.2L250.6,184.2z"/>
<path class="st0" d="M4.2,64.4l69.1,89c0,0,32.3,0.7,48.4,20.3s139.1-28,139.1-28s-102.1-0.3-116-38.8s-31.2-101-31.2-101
	S22.5,41,4.2,64.4z"/>
<path d="M108.1,55.5c0.9,0.5,1,0.3,1.2,1.5c-4,2.3-8.7,3.6-13.3,5.5c-8.9,3.9-17.9,8.1-26.8,12c-2.2,1-4.6,2.6-6.8,3.7
	c-1.9,1-3.8,1.4-5.6,2.5c-2.2,1.3-4.8,3.6-7.7,4c-0.2-0.5-0.3-1-0.3-1.5C61,76.1,73.6,69.9,86.5,64.4c4.9-2.1,9.4-3.8,14.2-5.9
	C103.2,57.5,106.3,57.2,108.1,55.5z M116.4,77.4c0.5,0.1,1,0.2,1.6,0.3v1.5c-6.1,1.2-11.5,4.5-16.7,6.8c-9.1,3.9-17.4,7.1-25.9,11.4
	c-1.6,0.8-3.3,2.1-4.9,2.8c-1.9,0.9-3.7,1.1-5.6,2.2c-1.6,1-2.6,2.5-4.9,2.8c-0.2-0.5-0.3-1-0.3-1.5c11.6-6.7,23.5-12.6,35.8-17.9
	c1.7-0.5,3.3-1,4.9-1.5c3.1-1.3,6.5-3.3,9.6-4.6C112.2,78.6,114.7,78.7,116.4,77.4L116.4,77.4z M127.6,91.8h1.8
	c0.2,0.4,0.3,0.8,0.3,1.2c-13.3,7.3-28.6,13.7-42.9,20c-2.8,1.2-5.4,2.7-8,4.3c-2.1,1.3-3.5,3.4-6.5,3.7c-0.2-0.5-0.3-1-0.3-1.5
	c2.9-1.3,5.4-3.6,8-5.2c4.5-2.8,9.5-4.6,14.5-6.8c5.2-2.3,10.8-5.4,16-7.7C116.3,97.3,123.5,96,127.6,91.8L127.6,91.8z"/>
</svg>
