<svg version="1.1" xmlns="http://www.w3.org/2000/svg" xmlns:xlink="http://www.w3.org/1999/xlink" x="0px" y="0px"
	 viewBox="0 0 260 259.3" style="enable-background:new 0 0 260 259.3;" xml:space="preserve">
<style type="text/css">
	.st1{fill:#FFF8EA;}
	.st2{fill:#FFEAC6;}
	.st3{fill:#5058B5;}
	.st4{fill:#A8B8C8;}
	.st5{fill:#E9ECF4;}
	.st6{fill:#F9F9F9;}
	.st7{fill:#F05637;}
	.st8{fill:#FFCB36;}
	.st9{fill:#3F47AE;}
</style>
	<path class="st1" d="M166.8,48.9c0,0-105.6,0-139.5,0c0,26.1,0.1-48.9,0.1,146.6c0,0-7.5,0.3-21.6,0.3c0,11.6,0,19.1,0,19.1
		c0,6.6,5.4,12,12,12h149c6.6,0,12-5.4,12-12V60.9C178.8,54.2,173.5,48.9,166.8,48.9z"/>
	<path class="st2" d="M17.8,226.9c-0.4,0-0.7,0-1.1-0.1c-0.4,0-0.7,0.1-1.1,0.1H17.8z M5.8,195.8c0,11.6,0,19.1,0,19.1
		c0,6.3,4.8,11.4,10.9,11.9c6.1-0.5,10.7-5.7,10.7-11.9c0,0,0-10.1,0-19.4C27.4,195.5,19.9,195.8,5.8,195.8z"/>
	<path class="st3" d="M245.1,29.7H112.8c-2.7,0-4.8,2.1-4.8,4.8V208c0,2.7,2.1,4.8,4.8,4.8h132.2c2.7,0,4.8-2.1,4.8-4.8V34.5
		C249.9,31.8,247.7,29.7,245.1,29.7z"/>
	<path class="st4" d="M236.9,29.7H104.7c-2.7,0-4.8,2.1-4.8,4.8V208c0,2.7,2.1,4.8,4.8,4.8h132.2c2.7,0,4.8-2.1,4.8-4.8V34.5
		C241.7,31.8,239.6,29.7,236.9,29.7z"/>
	<path class="st5" d="M143.8,90.1h-20.9c-2,0-3.6,1.6-3.6,3.6v22.1c0,2,1.6,3.6,3.6,3.6h20.9c2,0,3.6-1.6,3.6-3.6V93.7
		C147.4,91.8,145.8,90.1,143.8,90.1z"/>
	<path class="st6" d="M216,47.9h-93.1c-2,0-3.6,1.6-3.6,3.6v22.1c0,2,1.6,3.6,3.6,3.6H216c2,0,3.6-1.6,3.6-3.6V51.5
		C219.6,49.5,218,47.9,216,47.9z"/>
	<path class="st5" d="M180,90.1h-20.9c-2,0-3.6,1.6-3.6,3.6v22.1c0,2,1.6,3.6,3.6,3.6H180c2,0,3.6-1.6,3.6-3.6V93.7
		C183.6,91.8,182,90.1,180,90.1z"/>
	<path class="st5" d="M216,90.1h-20.9c-2,0-3.6,1.6-3.6,3.6v22.1c0,2,1.6,3.6,3.6,3.6H216c2,0,3.6-1.6,3.6-3.6V93.7
		C219.6,91.8,218,90.1,216,90.1z"/>
	<path class="st5" d="M143.8,126.1h-20.9c-2,0-3.6,1.6-3.6,3.6v22.1c0,2,1.6,3.6,3.6,3.6h20.9c2,0,3.6-1.6,3.6-3.6v-22.1
		C147.4,127.8,145.8,126.1,143.8,126.1z"/>
	<path class="st5" d="M180,126.1h-20.9c-2,0-3.6,1.6-3.6,3.6v22.1c0,2,1.6,3.6,3.6,3.6H180c2,0,3.6-1.6,3.6-3.6v-22.1
		C183.6,127.8,182,126.1,180,126.1z"/>
	<path class="st5" d="M216,126.1h-20.9c-2,0-3.6,1.6-3.6,3.6v58.1c0,2,1.6,3.6,3.6,3.6H216c2,0,3.6-1.6,3.6-3.6v-58.1
		C219.6,127.8,218,126.1,216,126.1z"/>
	<path class="st5" d="M143.8,162.1h-20.9c-2,0-3.6,1.6-3.6,3.6v22.1c0,2,1.6,3.6,3.6,3.6h20.9c2,0,3.6-1.6,3.6-3.6v-22.1
		C147.4,163.8,145.8,162.1,143.8,162.1z"/>
	<path class="st5" d="M180,162.1h-20.9c-2,0-3.6,1.6-3.6,3.6v22.1c0,2,1.6,3.6,3.6,3.6H180c2,0,3.6-1.6,3.6-3.6v-22.1
		C183.6,163.8,182,162.1,180,162.1z"/>
	<path class="st3" d="M133.6,101.7c-1.7,0-3,1.3-3,3s1.3,3,3,3c1.7,0,3-1.3,3-3S135.3,101.7,133.6,101.7z"/>
	<path class="st3" d="M169.4,101.7c-1.7,0-3,1.3-3,3s1.3,3,3,3c1.7,0,3-1.3,3-3S171,101.7,169.4,101.7z"/>
	<path class="st3" d="M133.6,137.7c-1.7,0-3,1.3-3,3s1.3,3,3,3c1.7,0,3-1.3,3-3S135.3,137.7,133.6,137.7z"/>
	<path class="st3" d="M169.4,137.7c-1.7,0-3,1.3-3,3s1.3,3,3,3c1.7,0,3-1.3,3-3S171,137.7,169.4,137.7z"/>
	<path class="st7" d="M205.6,155.4c-1.7,0-3,1.3-3,3s1.3,3,3,3c1.7,0,3-1.3,3-3S207.3,155.4,205.6,155.4z"/>
	<path class="st3" d="M133.6,173.9c-1.7,0-3,1.3-3,3c0,1.7,1.3,3,3,3c1.7,0,3-1.3,3-3C136.6,175.2,135.3,173.9,133.6,173.9z"/>
	<path class="st3" d="M169.4,173.9c-1.7,0-3,1.3-3,3c0,1.7,1.3,3,3,3c1.7,0,3-1.3,3-3C172.4,175.2,171,173.9,169.4,173.9z"/>
	<path class="st3" d="M205.6,101.7c-1.7,0-3,1.3-3,3s1.3,3,3,3c1.7,0,3-1.3,3-3S207.3,101.7,205.6,101.7z"/>
	<path class="st8" d="M65.1,28.5h-13c-2.7,0-4.8,2.1-4.8,4.8v154.6h22.6V33.3C69.9,30.6,67.7,28.5,65.1,28.5z"/>
	<path class="st9" d="M69.9,50.1c-14.4,0-22.8,0-22.8,0h-0.2v5.8h23v0c1.5-0.1,9.1,0.1,9.1,9.6v3.8c0,7.6,0,10.3,0,10.3v33.4
		c0,1.6,1.3,2.9,2.9,2.9s2.9-1.3,2.9-2.9V79.3c0,0,0-5.6,0-10.1v-4.1C84.8,61.4,84.2,50.1,69.9,50.1z M69.9,65.2h-23v5.8h23V65.2z
		 M56.2,210.6c0,0,0.6,2.4,2.6,2.4c2.1,0,2.6-2.4,2.6-2.4l8.6-22.8H47.3L56.2,210.6z"/>
	<path class="st3" d="M193.7,53.1c0-0.5-0.4-0.8-0.8-0.8h-4.1c-0.5,0-0.8,0.4-0.8,0.8s0.4,0.8,0.8,0.8h4.1
		C193.3,53.9,193.7,53.5,193.7,53.1z M188,54.7c-0.5,0-0.9,0.4-0.9,1l-0.4,5.1c0,0.6,0.3,1.1,0.8,1.1c0.5,0,0.9-0.4,0.9-1l0.4-5.1
		C188.8,55.2,188.5,54.7,188,54.7z M193.8,54.7c-0.5,0-0.9,0.4-0.9,1l-0.4,5.1c0,0.6,0.3,1.1,0.8,1.1c0.5,0,0.9-0.4,0.9-1l0.4-5.1
		C194.6,55.2,194.2,54.7,193.8,54.7z M192.8,63.8c-0.5,0-0.9,0.4-0.9,1l-0.4,5.1c0,0.6,0.3,1.1,0.8,1.1c0.5,0,0.9-0.4,0.9-1
		l0.4-5.1C193.6,64.4,193.3,63.9,192.8,63.8z M198.6,53.9h4.1c0.5,0,0.8-0.4,0.8-0.8s-0.4-0.8-0.8-0.8h-4.1
		c-0.5,0-0.8,0.4-0.8,0.8S198.2,53.9,198.6,53.9z M201.5,71.4h-4.1c-0.5,0-0.8,0.4-0.8,0.8c0,0.5,0.4,0.8,0.8,0.8h4.1
		c0.5,0,0.8-0.4,0.8-0.8C202.4,71.8,202,71.4,201.5,71.4z M199.4,62.1c-0.5,0-0.8,0.4-0.8,0.8s0.4,0.8,0.8,0.8h1.2
		c0.5,0,0.8-0.4,0.8-0.8s-0.4-0.8-0.8-0.8H199.4z M197.3,61.9c0.5,0,0.9-0.4,0.9-1l0.4-5.1c0-0.6-0.3-1.1-0.8-1.1
		c-0.5,0-0.9,0.4-0.9,1l-0.4,5.1C196.5,61.4,196.9,61.9,197.3,61.9z M203.6,54.7c-0.5,0-0.9,0.4-0.9,1l-0.4,5.1
		c0,0.6,0.3,1.1,0.8,1.1c0.5,0,0.9-0.4,0.9-1l0.4-5.1C204.4,55.2,204.1,54.7,203.6,54.7z M202.7,63.8c-0.5,0-0.9,0.4-0.9,1
		l-0.4,5.1c0,0.6,0.3,1.1,0.8,1.1s0.9-0.4,0.9-1l0.4-5.1C203.5,64.4,203.1,63.9,202.7,63.8z M197.8,70l0.4-5.1
		c0-0.6-0.3-1.1-0.8-1.1c-0.5,0-0.9,0.4-0.9,1l-0.4,5.1c0,0.6,0.3,1.1,0.8,1.1C197.3,71.1,197.7,70.6,197.8,70z M208.2,53.9h4.1
		c0.5,0,0.8-0.4,0.8-0.8s-0.4-0.8-0.8-0.8h-4.1c-0.5,0-0.8,0.4-0.8,0.8S207.8,53.9,208.2,53.9z M211.1,71.4H207
		c-0.5,0-0.8,0.4-0.8,0.8c0,0.5,0.4,0.8,0.8,0.8h4.1c0.5,0,0.8-0.4,0.8-0.8C212,71.8,211.6,71.4,211.1,71.4z M209,62.1
		c-0.5,0-0.8,0.4-0.8,0.8s0.4,0.8,0.8,0.8h1.2c0.5,0,0.8-0.4,0.8-0.8s-0.4-0.8-0.8-0.8H209z M206.9,61.9c0.5,0,0.9-0.4,0.9-1
		l0.4-5.1c0-0.6-0.3-1.1-0.8-1.1c-0.5,0-0.9,0.4-0.9,1l-0.4,5.1C206.1,61.4,206.5,61.9,206.9,61.9z M213.2,54.7
		c-0.5,0-0.9,0.4-0.9,1l-0.4,5.1c0,0.6,0.3,1.1,0.8,1.1c0.5,0,0.9-0.4,0.9-1l0.4-5.1C214,55.2,213.7,54.7,213.2,54.7z M212.3,63.8
		c-0.5,0-0.9,0.4-0.9,1l-0.4,5.1c0,0.6,0.3,1.1,0.8,1.1c0.5,0,0.9-0.4,0.9-1l0.4-5.1C213.1,64.4,212.7,63.9,212.3,63.8z"/>
</svg>
