<svg version="1.1" xmlns="http://www.w3.org/2000/svg" xmlns:xlink="http://www.w3.org/1999/xlink" x="0px" y="0px"
	 viewBox="0 0 260 259.3" style="enable-background:new 0 0 260 259.3;" xml:space="preserve">
	<style type="text/css">
		.st0{enable-background:new    ;}
		.st1{fill:#CB7642;}
		.st2{fill:#D69269;}
		.st3{fill:#B65629;}
		.st4{fill:#FFCB36;}
		.st5{fill:#FFF7E8;}
		.st6{fill:#82D1DD;}
	</style>
	<polygon class="st1" points="60.7,95.7 131.5,136.8 131.5,54 "/>
	<polygon class="st2" points="131.5,54 131.5,136.8 202.3,95.7 "/>
	<path class="st2" d="M132,215.1v-77.6L59.7,97V173c0,2.5,1.6,5.4,3.5,6.5l65.1,38c1.1,0.6,2.7,1.2,3.4,0.6
		C132.3,217.6,132,216.2,132,215.1z"/>
	<path class="st1" d="M131.2,137.4V215c0,1.2-0.2,2.7,0.5,3.1c0.7,0.5,2.2-0.1,3.2-0.7l65-38c2-1.1,3.5-4.1,3.5-6.5v-76
		L131.2,137.4z"/>
	<path class="st3" d="M108.9,33.7c-2.2-1.8-5.4-2.4-7.3-1.3L38.3,70c-2,1.2-1.9,3.7,0.3,5.6l22.6,20.1l70.2-42.9L108.9,33.7z"/>
	<path class="st3" d="M224.6,70.3l-63.3-37.6c-1.9-1.1-5.2-0.5-7.3,1.3l-22.6,19.2L201.7,96l22.6-20.1
		C226.5,74,226.6,71.4,224.6,70.3z"/>
	<path class="st3" d="M60.9,95.8l-22.2,19.7c-2.2,1.9-2.3,4.4-0.3,5.5l64,36.7c2,1.1,5.3,0.5,7.4-1.4l22.2-19.7L60.9,95.8z"/>
	<path class="st3" d="M224.1,115.4l-22.2-19.7l-71.1,40.8l22.2,19.7c2.2,1.9,5.5,2.5,7.5,1.4l64-36.7
		C226.4,119.7,226.2,117.3,224.1,115.4z"/>
	<ellipse transform="matrix(0.9732 -0.2298 0.2298 0.9732 -37.6108 51.7624)" class="st4" cx="203.5" cy="187.4" rx="31" ry="31"/>
	<path class="st5" d="M222.2,189.7c-0.9-0.9-2.5-0.9-3.5,0l-12.5,12.6v-35c0-1.4-1.1-2.5-2.5-2.5s-2.4,1.1-2.4,2.5v35l-12.5-12.6
		c-0.9-0.9-2.5-0.9-3.4,0c-1,1-1,2.5,0,3.5l16.6,16.8c0.9,0.9,2.5,0.9,3.4,0l16.6-16.8C223.2,192.2,223.2,190.7,222.2,189.7z"/>
	<path class="st6" d="M162,56.4c-2.6,0-5,0.4-7.3,1.2c-1.1-11.3-10.6-20.2-22.2-20.2c-11.8,0-21.5,9.2-22.3,20.8
		c-2.7-1.2-5.8-1.9-8.9-1.9c-12.3,0-22.3,10-22.3,22.3c0,12.2,9.9,22.2,22.1,22.3v0h61c12.3,0,22.3-10,22.3-22.3
		C184.3,66.3,174.3,56.4,162,56.4z"/>
</svg>
