<svg width="1920" height="281" viewBox="0 0 1920 281" fill="none" xmlns="http://www.w3.org/2000/svg">
<g clip-path="url(#clip0)">
<path d="M-5 281V0C-5 0 462.173 251.567 1042.34 254.344C1622.5 257.121 1925 206.585 1925 206.585V281H-5Z" fill="#303E4E" stroke="black"/>
</g>
<defs>
<clipPath id="clip0">
<rect width="1920" height="281" fill="white"/>
</clipPath>
</defs>
</svg>
